…
``` r
iris <- as_tibble(iris)
iris
```

    ## # A tibble: 150 x 5
    ##    Sepal.Length Sepal.Width Petal.Length Petal.Width Species
    ##           <dbl>       <dbl>        <dbl>       <dbl> <fct>  
    ##  1          5.1         3.5          1.4         0.2 setosa 
    ##  2          4.9         3            1.4         0.2 setosa 
    ##  3          4.7         3.2          1.3         0.2 setosa 
    ##  4          4.6         3.1          1.5         0.2 setosa 
    ##  5          5           3.6          1.4         0.2 setosa 
    ##  6          5.4         3.9          1.7         0.4 setosa 
    ##  7          4.6         3.4          1.4         0.3 setosa 
    ##  8          5           3.4          1.5         0.2 setosa 
    ##  9          4.4         2.9          1.4         0.2 setosa 
    ## 10          4.9         3.1          1.5         0.1 setosa 
    ## # ... with 140 more rows
…
## Question 1

1.  Rename each variable so that it is all lower-case and uses an
    underscore \_ instead of a period . in the name (the recommended
    coding style in the tidyverse style guide). Print the resulting
    table.

<!-- end list -->

``` r
new_iris <- rename(iris, sepal_length = Sepal.Length, sepal_width = Sepal.Width, petal_length = Petal.Length, petal_width = Petal.Width, species = Species)
new_iris
```

    ## # A tibble: 150 x 5
    ##    sepal_length sepal_width petal_length petal_width species
    ##           <dbl>       <dbl>        <dbl>       <dbl> <fct>  
    ##  1          5.1         3.5          1.4         0.2 setosa 
    ##  2          4.9         3            1.4         0.2 setosa 
    ##  3          4.7         3.2          1.3         0.2 setosa 
    ##  4          4.6         3.1          1.5         0.2 setosa 
    ##  5          5           3.6          1.4         0.2 setosa 
    ##  6          5.4         3.9          1.7         0.4 setosa 
    ##  7          4.6         3.4          1.4         0.3 setosa 
    ##  8          5           3.4          1.5         0.2 setosa 
    ##  9          4.4         2.9          1.4         0.2 setosa 
    ## 10          4.9         3.1          1.5         0.1 setosa 
    ## # ... with 140 more rows

## Question 2

2.  Convert the four numerical variables from cm to mm by multiplying by
    10. Print the resulting table.

<!-- end list -->

``` r
iris_cm <- mutate(new_iris, sepal_length = sepal_length * 10, sepal_width = sepal_width * 10, petal_length = petal_length * 10, petal_width = petal_width * 10)
iris_cm
```

    ## # A tibble: 150 x 5
    ##    sepal_length sepal_width petal_length petal_width species
    ##           <dbl>       <dbl>        <dbl>       <dbl> <fct>  
    ##  1           51          35           14           2 setosa 
    ##  2           49          30           14           2 setosa 
    ##  3           47          32           13           2 setosa 
    ##  4           46          31           15           2 setosa 
    ##  5           50          36           14           2 setosa 
    ##  6           54          39           17           4 setosa 
    ##  7           46          34           14           3 setosa 
    ##  8           50          34           15           2 setosa 
    ##  9           44          29           14           2 setosa 
    ## 10           49          31           15           1 setosa 
    ## # ... with 140 more rows
## Question 3

3.  Calculate sepal area and petal area (area is equal to length
    multiplied by width). Print a table with only the variables sepal
    area, petal area, and species.

<!-- end list -->

``` r
iris_area <-mutate(iris_cm, sepal_area = sepal_length * sepal_width, petal_area = petal_length * petal_width)
iris_onlyarea <- select(iris_area, sepal_area, petal_area, species)
iris_onlyarea
```

    ## # A tibble: 150 x 3
    ##    sepal_area petal_area species
    ##         <dbl>      <dbl> <fct>  
    ##  1       1785         28 setosa 
    ##  2       1470         28 setosa 
    ##  3       1504         26 setosa 
    ##  4       1426         30 setosa 
    ##  5       1800         28 setosa 
    ##  6       2106         68 setosa 
    ##  7       1564         42 setosa 
    ##  8       1700         30 setosa 
    ##  9       1276         28 setosa 
    ## 10       1519         15 setosa 
    ## # ... with 140 more rows
…
## Question 5

5.  Calculate the following statistics for each species from the petal
    width variable and print the resulting table:

sample size mean standard deviation variance standard error of the mean
approximate 95% confidence interval

``` r
iris_grouped <- group_by(iris, Species)
iris_grouped
```

    ## # A tibble: 150 x 5
    ## # Groups:   Species [3]
    ##    Sepal.Length Sepal.Width Petal.Length Petal.Width Species
    ##           <dbl>       <dbl>        <dbl>       <dbl> <fct>  
    ##  1          5.1         3.5          1.4         0.2 setosa 
    ##  2          4.9         3            1.4         0.2 setosa 
    ##  3          4.7         3.2          1.3         0.2 setosa 
    ##  4          4.6         3.1          1.5         0.2 setosa 
    ##  5          5           3.6          1.4         0.2 setosa 
    ##  6          5.4         3.9          1.7         0.4 setosa 
    ##  7          4.6         3.4          1.4         0.3 setosa 
    ##  8          5           3.4          1.5         0.2 setosa 
    ##  9          4.4         2.9          1.4         0.2 setosa 
    ## 10          4.9         3.1          1.5         0.1 setosa 
    ## # ... with 140 more rows
…
